<?xml version="1.0" encoding="UTF-8" standalone="no"?>
<!-- Created with Inkscape (http://www.inkscape.org/) -->

<svg
   xmlns:dc="http://purl.org/dc/elements/1.1/"
   xmlns:cc="http://creativecommons.org/ns#"
   xmlns:rdf="http://www.w3.org/1999/02/22-rdf-syntax-ns#"
   xmlns:svg="http://www.w3.org/2000/svg"
   xmlns="http://www.w3.org/2000/svg"
   xmlns:sodipodi="http://sodipodi.sourceforge.net/DTD/sodipodi-0.dtd"
   xmlns:inkscape="http://www.inkscape.org/namespaces/inkscape"
   width="210mm"
   height="297mm"
   viewBox="0 0 744.09448819 1052.3622047"
   id="svg2"
   version="1.1"
   inkscape:version="0.91 r13725"
   sodipodi:docname="alignDialog.svg">
  <defs
     id="defs4">
    <filter
       inkscape:collect="always"
       style="color-interpolation-filters:sRGB"
       id="filter4222"
       x="-0.032308416"
       width="1.0646168"
       y="-0.040644016"
       height="1.081288">
      <feGaussianBlur
         inkscape:collect="always"
         stdDeviation="0.79696647"
         id="feGaussianBlur4224" />
    </filter>
  </defs>
  <sodipodi:namedview
     id="base"
     pagecolor="#ffffff"
     bordercolor="#666666"
     borderopacity="1.0"
     inkscape:pageopacity="0.0"
     inkscape:pageshadow="2"
     inkscape:zoom="3.959798"
     inkscape:cx="318.05379"
     inkscape:cy="912.36368"
     inkscape:document-units="px"
     inkscape:current-layer="layer1"
     showgrid="false"
     showguides="true"
     inkscape:guide-bbox="true"
     inkscape:window-width="1366"
     inkscape:window-height="706"
     inkscape:window-x="-8"
     inkscape:window-y="-8"
     inkscape:window-maximized="1">
    <sodipodi:guide
       position="147.5,853.57145"
       orientation="1,0"
       id="guide4136" />
    <sodipodi:guide
       position="226.42857,931.42859"
       orientation="0,1"
       id="guide4138" />
    <sodipodi:guide
       position="225.71429,960.00002"
       orientation="0,1"
       id="guide4140" />
    <sodipodi:guide
       position="230,988.57145"
       orientation="0,1"
       id="guide4142" />
    <sodipodi:guide
       position="195.71429,840.7143"
       orientation="1,0"
       id="guide4144" />
    <sodipodi:guide
       position="171.42857,878.57145"
       orientation="1,0"
       id="guide4148" />
  </sodipodi:namedview>
  <metadata
     id="metadata7">
    <rdf:RDF>
      <cc:Work
         rdf:about="">
        <dc:format>image/svg+xml</dc:format>
        <dc:type
           rdf:resource="http://purl.org/dc/dcmitype/StillImage" />
        <dc:title></dc:title>
      </cc:Work>
    </rdf:RDF>
  </metadata>
  <g
     inkscape:label="Layer 1"
     inkscape:groupmode="layer"
     id="layer1">
    <rect
       style="opacity:1;fill:none;fill-opacity:1;stroke:#ffffff;stroke-width:1;stroke-linecap:round;stroke-miterlimit:4;stroke-dasharray:none;stroke-dashoffset:0;stroke-opacity:1"
       id="rect4192"
       width="55"
       height="55"
       x="220.98857"
       y="124.33786"
       ry="0"
       inkscape:export-xdpi="87.798988"
       inkscape:export-ydpi="87.798988" />
    <g
       id="g4184"
       transform="matrix(0.83569536,0,0,0.80560696,124.9103,50.004527)"
       style="fill:#4d4d4d;fill-opacity:1;stroke:none;filter:url(#filter4222)"
       inkscape:export-xdpi="87.798988"
       inkscape:export-ydpi="87.798988">
      <rect
         style="opacity:1;fill:#4d4d4d;fill-opacity:1;stroke:none;stroke-width:0.96671796;stroke-linecap:round;stroke-miterlimit:4;stroke-dasharray:none;stroke-dashoffset:0;stroke-opacity:1"
         id="rect4186"
         width="59.033279"
         height="39.907375"
         x="118.92782"
         y="110.65881"
         ry="0" />
      <rect
         style="opacity:1;fill:#4d4d4d;fill-opacity:1;stroke:none;stroke-width:1.1158874;stroke-linecap:round;stroke-miterlimit:4;stroke-dasharray:none;stroke-dashoffset:0;stroke-opacity:1"
         id="rect4188"
         width="47.384117"
         height="11.312681"
         x="125.72321"
         y="124.46921"
         ry="5.6563406" />
      <rect
         style="opacity:1;fill:#4d4d4d;fill-opacity:1;stroke:none;stroke-width:0.8720504;stroke-linecap:round;stroke-miterlimit:4;stroke-dasharray:none;stroke-dashoffset:0;stroke-opacity:1"
         id="rect4190"
         width="59.127953"
         height="7.0909486"
         x="119.00176"
         y="103.50589" />
    </g>
    <rect
       style="opacity:1;fill:#ececec;fill-opacity:1;stroke:#000000;stroke-width:0.7932049;stroke-linecap:round;stroke-miterlimit:4;stroke-dasharray:none;stroke-dashoffset:0;stroke-opacity:1"
       id="rect4174"
       width="49.333839"
       height="32.149658"
       x="222.11153"
       y="136.94684"
       ry="0"
       inkscape:export-xdpi="87.798988"
       inkscape:export-ydpi="87.798988" />
    <rect
       style="opacity:1;fill:#000080;fill-opacity:1;stroke:none;stroke-width:1.1158874;stroke-linecap:round;stroke-miterlimit:4;stroke-dasharray:none;stroke-dashoffset:0;stroke-opacity:1"
       id="rect4160"
       width="32.212116"
       height="9.113575"
       x="230.57103"
       y="148.07259"
       ry="4.5567875"
       inkscape:export-xdpi="87.798988"
       inkscape:export-ydpi="87.798988" />
    <rect
       style="opacity:1;fill:#0000ff;fill-opacity:1;stroke:#000000;stroke-width:0.71552891;stroke-linecap:round;stroke-miterlimit:4;stroke-dasharray:none;stroke-dashoffset:0;stroke-opacity:1"
       id="rect4177"
       width="49.412956"
       height="5.7125177"
       x="222.07198"
       y="131.1844"
       inkscape:export-xdpi="87.798988"
       inkscape:export-ydpi="87.798988" />
    <rect
       inkscape:export-ydpi="87.798988"
       inkscape:export-xdpi="87.798988"
       ry="0"
       y="125.34801"
       x="293.71954"
       height="55"
       width="55"
       id="rect4245"
       style="opacity:1;fill:none;fill-opacity:1;stroke:#ffffff;stroke-width:1;stroke-linecap:round;stroke-miterlimit:4;stroke-dasharray:none;stroke-dashoffset:0;stroke-opacity:1" />
    <g
       inkscape:export-ydpi="87.798988"
       inkscape:export-xdpi="87.798988"
       style="fill:#4d4d4d;fill-opacity:1;stroke:none;filter:url(#filter4222)"
       transform="matrix(0.83569536,0,0,0.80560696,197.64128,51.01468)"
       id="g4247">
      <rect
         ry="0"
         y="110.65881"
         x="118.92782"
         height="39.907375"
         width="59.033279"
         id="rect4249"
         style="opacity:1;fill:#4d4d4d;fill-opacity:1;stroke:none;stroke-width:0.96671796;stroke-linecap:round;stroke-miterlimit:4;stroke-dasharray:none;stroke-dashoffset:0;stroke-opacity:1" />
      <rect
         ry="5.6563406"
         y="124.46921"
         x="125.72321"
         height="11.312681"
         width="47.384117"
         id="rect4251"
         style="opacity:1;fill:#4d4d4d;fill-opacity:1;stroke:none;stroke-width:1.1158874;stroke-linecap:round;stroke-miterlimit:4;stroke-dasharray:none;stroke-dashoffset:0;stroke-opacity:1" />
      <rect
         y="103.50589"
         x="119.00176"
         height="7.0909486"
         width="59.127953"
         id="rect4253"
         style="opacity:1;fill:#4d4d4d;fill-opacity:1;stroke:none;stroke-width:0.8720504;stroke-linecap:round;stroke-miterlimit:4;stroke-dasharray:none;stroke-dashoffset:0;stroke-opacity:1" />
    </g>
    <rect
       inkscape:export-ydpi="87.798988"
       inkscape:export-xdpi="87.798988"
       ry="0"
       y="137.95699"
       x="294.8425"
       height="32.149658"
       width="49.333839"
       id="rect4255"
       style="opacity:1;fill:#ececec;fill-opacity:1;stroke:#000000;stroke-width:0.7932049;stroke-linecap:round;stroke-miterlimit:4;stroke-dasharray:none;stroke-dashoffset:0;stroke-opacity:1" />
    <rect
       inkscape:export-ydpi="87.798988"
       inkscape:export-xdpi="87.798988"
       ry="4.5567875"
       y="-324.06619"
       x="140.57741"
       height="9.113575"
       width="26.908815"
       id="rect4257"
       style="opacity:1;fill:#000080;fill-opacity:1;stroke:none;stroke-width:1.1158874;stroke-linecap:round;stroke-miterlimit:4;stroke-dasharray:none;stroke-dashoffset:0;stroke-opacity:1"
       transform="matrix(0,1,-1,0,0,0)" />
    <rect
       inkscape:export-ydpi="87.798988"
       inkscape:export-xdpi="87.798988"
       y="132.19455"
       x="294.80295"
       height="5.7125177"
       width="49.412956"
       id="rect4259"
       style="opacity:1;fill:#0000ff;fill-opacity:1;stroke:#000000;stroke-width:0.71552891;stroke-linecap:round;stroke-miterlimit:4;stroke-dasharray:none;stroke-dashoffset:0;stroke-opacity:1" />
  </g>
</svg>
